add_sub/sim/wave.vcd
$version Generated by VerilatedVcd $end
$timescale 1ns $end
 $scope module $rootio $end
 $upscope $end
 $scope module add_sub_tb $end
  $var wire 32 ) N [31:0] $end
  $var wire 4 # S [3:0] $end
  $var wire 1 $ Cout $end
  $var wire 4 % A [3:0] $end
  $var wire 4 & B [3:0] $end
  $var wire 1 * sel $end
  $var wire 5 ' check__Vstatic__result [4:0] $end
  $scope module dut $end
   $var wire 32 ) N [31:0] $end
   $var wire 4 % A [3:0] $end
   $var wire 4 & B [3:0] $end
   $var wire 1 * sel $end
   $var wire 4 # S [3:0] $end
   $var wire 1 $ Cout $end
  $upscope $end
  $scope module unnamedblk1 $end
   $var wire 32 ( i [31:0] $end
  $upscope $end
 $upscope $end
$enddefinitions $end


#0
b1011 #
1$
b1100 %
b1111 &
b11011 '
b00000000000000000000000000000000 (
b00000000000000000000000000000100 )
0*
#1
#6
b1110 #
b1111 %
b11110 '
b00000000000000000000000000000001 (
#7
#12
b1000 #
0$
b0110 %
b0010 &
b01000 '
b00000000000000000000000000000010 (
#13
#18
b0111 #
1$
b1100 %
b1011 &
b10111 '
b00000000000000000000000000000011 (
#19
#24
b1100 #
0$
b0000 %
b1100 &
b01100 '
b00000000000000000000000000000100 (
#25
#30
b0111 #
1$
b1110 %
b1001 &
b10111 '
b00000000000000000000000000000101 (
#31
#36
b0101 #
0$
b0100 %
b0001 &
b00101 '
b00000000000000000000000000000110 (
#37
#42
b1011 #
b0101 %
b0110 &
b01011 '
b00000000000000000000000000000111 (
#43
#48
b1010 #
b0111 %
b0011 &
b01010 '
b00000000000000000000000000001000 (
#49
#54
b1101 #
b0101 %
b1000 &
b01101 '
b00000000000000000000000000001001 (
#55
#60
b00000000000000000000000000001010 (
